<!-- README.md is generated from README.Rmd. Please edit that file -->

# Dự báo giá cổ phiếu ACB

### Dữ liệu giá theo thời gian

``` r
readd(input_data)
#> # A tibble: 3,634 x 16
#>    ticker dtyyyymmdd open_fixed high_fixed low_fixed close_fixed   volume  open
#>    <chr>       <dbl>      <dbl>      <dbl>     <dbl>       <dbl>    <dbl> <dbl>
#>  1 ACB      20210625       36.2       36.6      36.0        36.4  7934000  36.2
#>  2 ACB      20210624       36         36.4      35.6        36.2 11494200  36  
#>  3 ACB      20210623       35.9       36.4      35.7        35.8 10244600  35.9
#>  4 ACB      20210622       35.2       36        34.8        35.6 14872000  35.2
#>  5 ACB      20210621       35         35.2      34.6        34.8  5447600  35  
#>  6 ACB      20210618       35.2       35.5      34.9        35    9215200  35.2
#>  7 ACB      20210617       34         35        33.7        34.9  6392600  34  
#>  8 ACB      20210616       35.4       35.4      34.5        34.7  8211200  35.4
#>  9 ACB      20210615       34.1       36.2      33.5        35.4 18178200  34.1
#> 10 ACB      20210614       34.6       34.9      33.8        34.1 10946100  34.6
#> # ... with 3,624 more rows, and 8 more variables: high <dbl>, low <dbl>,
#> #   close <dbl>, volume_deal <dbl>, volume_fb <dbl>, volume_fs <dbl>,
#> #   date <date>, value <dbl>
```
